[
    "0000000000000000000000000000000000000010, 3, 0",
    "0000000000000000000000000000000000000016, 1, 2",
    "0000000000000000000000000000000000000019, 2, 3",
    "000000000000000000000000000000000000005e, 1, 4",
    "000000000000000000000000000000000000001e, 2, 13",
    "0000000000000000000000000000000000000001, 2, 0",
    "000000000000000000000000000000000000002a, 4, 0",
    "000000000000000000000000000000000000000f, 2, 2",
    "0000000000000000000000000000000000000024, 3, 1",
    "0000000000000000000000000000000000000040, 2, 0",
    "000000000000000000000000000000000000002b, 1, 2",
    "000000000000000000000000000000000000001c, 3, 2",
    "000000000000000000000000000000000000004a, 1, 1",
    "0000000000000000000000000000000000000062, 3, 8",
    "0000000000000000000000000000000000000042, 1, 28",
    "0000000000000000000000000000000000000031, 1, 1",
    "0000000000000000000000000000000000000032, 1, 1",
    "0000000000000000000000000000000000000028, 1, 4",
    "0000000000000000000000000000000000000048, 1, 15",
    "000000000000000000000000000000000000002f, 6, 0",
    "000000000000000000000000000000000000005b, 1, 3",
    "0000000000000000000000000000000000000000, 3, 8",
    "000000000000000000000000000000000000003b, 1, 1",
    "0000000000000000000000000000000000000035, 1, 1"
]